{ "evaluations" : [
  {
    "name": "Tietotekniikkataidot",
    "vkoodi": 39008,
    "grade": 5,
    "date": "2014-12-02",
    "type": "COURSEUNIT"
  },
  {
    "name": "Orientoivat opinnot ja HOPS",
    "vkoodi": 38279,
    "grade": 5,
    "date": "2014-12-02",
    "type": "COURSEUNIT"
  },
  {
    "name": "Etiikka ja yhteiskuntafilosofia",
    "vkoodi": 40845,
    "grade": 5,
    "date": "2014-12-02",
    "type": "COURSEUNIT"
  },
  {
    "name": "Suomalaisen yhteiskunnan historia vuodesta 1809 nykyaikaan",
    "vkoodi": 40892,
    "grade": 5,
    "date": "2014-12-02",
    "type": "COURSEUNIT"
  },
  {
    "name": "Yhteiskunnan tutkimuksen ajankohtaisia kysymyksiä",
    "vkoodi": 40780,
    "grade": 5,
    "date": "2014-12-02",
    "type": "COURSEUNIT"
  },
  {
    "name": "Etiikka ja yhteiskuntafilosofia",
    "vkoodi": 40845,
    "grade": 5,
    "date": "2014-12-02",
    "type": "COURSEUNIT"
  },
  {
    "name": "Tieto-oppi ja ontologia",
    "vkoodi": 40843,
    "grade": 5,
    "date": "2014-12-02",
    "type": "COURSEUNIT"
  },
  {
    "name": "Logiikka",
    "vkoodi": 40846,
    "grade": 5,
    "date": "2014-12-02",
    "type": "COURSEUNIT"
  },
  {
    "name": "Kielifilosofia",
    "vkoodi": 40856,
    "grade": 5,
    "date": "2014-12-02",
    "type": "COURSEUNIT"
  }
]}
